…
``` r
cuts.of.diamonds <- diamonds %>% count(cut)
```

``` r
sample_frac(diamonds,.01,replace=TRUE)
```

    ## # A tibble: 539 × 10
    ##    carat cut       color clarity depth table price     x     y     z
    ##    <dbl> <ord>     <ord> <ord>   <dbl> <dbl> <int> <dbl> <dbl> <dbl>
    ##  1  1.2  Premium   G     SI2      59.2    60  5278  6.92  6.9   4.09
    ##  2  0.31 Ideal     G     VS2      62.3    56   544  4.29  4.34  2.69
    ##  3  1.51 Premium   E     SI2      63      55  9302  7.34  7.3   4.61
    ##  4  1    Premium   G     VS2      61.6    58  5940  6.39  6.43  3.95
    ##  5  1.59 Ideal     I     SI2      61.6    57  7978  7.56  7.51  4.64
    ##  6  0.32 Ideal     E     VS1      61.4    55   713  4.42  4.44  2.72
    ##  7  1.76 Very Good H     SI1      63.1    59 12288  7.69  7.59  4.82
    ##  8  1.01 Very Good J     SI2      63.3    53  3088  6.35  6.31  4.01
    ##  9  0.55 Ideal     H     VVS2     61.7    57  1806  5.28  5.26  3.25
    ## 10  0.32 Ideal     G     VS2      62.1    56   524  4.36  4.4   2.72
    ## # … with 529 more rows
…
